This is pdfTeX, Version 3.141592653-2.6-1.40.24 (TeX Live 2022/Debian) (preloaded format=latex 2023.6.1)  5 DEC 2023 14:49
entering extended mode
 restricted \write18 enabled.
 %&-line parsing enabled.
**german.ins
(./german.ins
LaTeX2e <2022-11-01> patch level 1
L3 programming layer <2023-01-16>
(/usr/share/texlive/texmf-dist/tex/latex/base/docstrip.tex
\blockLevel=\count185
\emptyLines=\count186
\processedLines=\count187
\commentsRemoved=\count188
\commentsPassed=\count189
\codeLinesPassed=\count190
\TotalprocessedLines=\count191
\TotalcommentsRemoved=\count192
\TotalcommentsPassed=\count193
\TotalcodeLinesPassed=\count194
\NumberOfFiles=\count195
\inFile=\read2
\inputcheck=\read3
\off@0=\count196
\off@1=\count197
\off@2=\count198
\off@3=\count199
\off@4=\count266
\off@5=\count267
\off@6=\count268
\off@7=\count269
\off@8=\count270
\off@9=\count271
\off@10=\count272
\off@11=\count273
\off@12=\count274
\off@13=\count275
\off@14=\count276
\off@15=\count277
\@maxfiles=\count278
\@maxoutfiles=\count279

Utility: `docstrip' v2.6b <2022-09-03>
English documentation    <2022-09-03>

**********************************************************
* This program converts documented macro-files into fast *
* loadable files by stripping off (nearly) all comments! *
**********************************************************

********************************************************
* No Configuration file found, using default settings. *
********************************************************

)

Generating file(s) ./germanb.ldf ./german.ldf ./austrian.ldf ./swissgerman.ldf 
./ngermanb.ldf ./ngerman.ldf ./naustrian.ldf ./nswissgerman.ldf 
\openout0 = `./germanb.ldf'.

\openout1 = `./german.ldf'.

\openout2 = `./austrian.ldf'.

\openout3 = `./swissgerman.ldf'.


Processing file germanb.dtx (germanb) -> germanb.ldf
                            (german) -> german.ldf
                            (austrian) -> austrian.ldf
                            (swissgerman) -> swissgerman.ldf
File germanb.dtx ended by \endinput.
Lines  processed: 1027
Comments removed: 758
Comments  passed: 17
Codelines passed: 240

\openout0 = `./ngermanb.ldf'.

\openout1 = `./ngerman.ldf'.

\openout2 = `./naustrian.ldf'.

\openout3 = `./nswissgerman.ldf'.


Processing file ngermanb.dtx (ngermanb) -> ngermanb.ldf
                             (ngerman) -> ngerman.ldf
                             (naustrian) -> naustrian.ldf
                             (nswissgerman) -> nswissgerman.ldf
File ngermanb.dtx ended by \endinput.
Lines  processed: 827
Comments removed: 601
Comments  passed: 17
Codelines passed: 197

***********************************************************
*
* To finish the installation you have to move the following
* files into a directory searched by TeX:
*
*   austrian.ldf, german.ldf, germanb.ldf,
*   naustrian.ldf, ngerman.ldf, ngermanb.ldf,
*   nswissgerman.ldf and swissgerman.ldf
*
* To produce the documentation run the files 
* germanb.dtx and ngermanb.dtx through LaTeX.
*
* Happy TeXing
***********************************************************
Overall statistics:
Files  processed: 2
Lines  processed: 1854
Comments removed: 1359
Comments  passed: 34
Codelines passed: 437
 ) 
Here is how much of TeX's memory you used:
 398 strings out of 478052
 4411 string characters out of 5840970
 1849327 words of memory out of 5000000
 20615 multiletter control sequences out of 15000+600000
 512287 words of font info for 32 fonts, out of 8000000 for 9000
 14 hyphenation exceptions out of 8191
 14i,0n,15p,187b,187s stack positions out of 10000i,1000n,20000p,200000b,200000s

No pages of output.
